<svg xmlns="http://www.w3.org/2000/svg" width="18" height="12" viewBox="0 0 18 12">
  <path id="Path_10239" data-name="Path 10239" d="M236,560h12v-2H236Zm-3-7v2h18v-2Zm7,12h4v-2h-4Z" transform="translate(-233 -553)" fill="#69a03a"/>
</svg>
