<svg xmlns="http://www.w3.org/2000/svg" width="19" height="17.433" viewBox="0 0 19 17.433">
  <path id="Path_338" data-name="Path 338" d="M821.095,664.223l-.095.095-.1-.095c-4.513-4.1-7.5-6.8-7.5-9.548a3.247,3.247,0,0,1,3.325-3.325,3.728,3.728,0,0,1,3.391,2.242h1.768a3.728,3.728,0,0,1,3.391-2.242,3.247,3.247,0,0,1,3.325,3.325C828.6,657.421,825.617,660.128,821.095,664.223Zm4.18-14.773A5.714,5.714,0,0,0,821,651.426a5.715,5.715,0,0,0-4.275-1.976,5.169,5.169,0,0,0-5.225,5.225c0,3.582,3.23,6.517,8.123,10.954L821,666.883l1.377-1.254c4.893-4.437,8.123-7.372,8.123-10.954A5.169,5.169,0,0,0,825.275,649.45Z" transform="translate(-811.5 -649.45)" fill="red"/>
</svg>
