<svg xmlns="http://www.w3.org/2000/svg" width="10.887" height="14.607" viewBox="0 0 10.887 14.607">
  <g id="rubbish-bin" transform="translate(-52.016)">
    <g id="Group_470" data-name="Group 470" transform="translate(52.016)">
      <path id="Path_717" data-name="Path 717" d="M74.533,109.813a.735.735,0,0,0,.734.7H82.13a.735.735,0,0,0,.734-.7l.49-10.345H74.043Zm5.718-7.776a.3.3,0,0,1,.3-.3h.478a.3.3,0,0,1,.3.3v5.911a.3.3,0,0,1-.3.3H80.55a.3.3,0,0,1-.3-.3Zm-2.09,0a.3.3,0,0,1,.3-.3h.478a.3.3,0,0,1,.3.3v5.911a.3.3,0,0,1-.3.3H78.46a.3.3,0,0,1-.3-.3v-5.911Zm-2.09,0a.3.3,0,0,1,.3-.3h.478a.3.3,0,0,1,.3.3v5.911a.3.3,0,0,1-.3.3H76.37a.3.3,0,0,1-.3-.3Z" transform="translate(-73.255 -95.911)" fill="#fff"/>
      <path id="Path_718" data-name="Path 718" d="M62.441.752H59.275v-.6A.154.154,0,0,0,59.122,0H55.8a.154.154,0,0,0-.154.154v.6H52.477a.461.461,0,0,0-.461.461V2.663H62.9V1.214A.461.461,0,0,0,62.441.752Z" transform="translate(-52.016)" fill="#fff"/>
    </g>
  </g>
</svg>
