<svg xmlns="http://www.w3.org/2000/svg" width="13.007" height="13.007" viewBox="0 0 13.007 13.007">
  <g id="clock" transform="translate(0 0)">
    <path id="Path_10236" data-name="Path 10236" d="M6.5,0a6.5,6.5,0,1,0,6.5,6.5A6.511,6.511,0,0,0,6.5,0Zm0,12A5.5,5.5,0,1,1,12,6.5,5.5,5.5,0,0,1,6.5,12Z" transform="translate(0 0)" fill="#ff9105"/>
    <path id="Path_10235" data-name="Path 10235" d="M238.99,123.414l-1.814-1.36v-2.771a.5.5,0,0,0-1.008,0v3.023a.5.5,0,0,0,.2.4l2.015,1.511a.5.5,0,0,0,.6-.806Z" transform="translate(-230.169 -115.761)" fill="#ff9105"/>
  </g>
</svg>
