<svg xmlns="http://www.w3.org/2000/svg" width="17.6" height="25.6" viewBox="0 0 17.6 25.6">
  <g id="Group_17" data-name="Group 17" transform="translate(0.8 0.8)">
    <path id="Path_47" data-name="Path 47" d="M93.333,0a8,8,0,0,0-7.039,11.8l6.6,11.94a.5.5,0,0,0,.875,0l6.6-11.944A8,8,0,0,0,93.333,0Zm0,12a4,4,0,1,1,4-4A4,4,0,0,1,93.333,12Z" transform="translate(-85.333)" fill="none" stroke="#fff" stroke-width="1.6"/>
  </g>
</svg>
