<svg xmlns="http://www.w3.org/2000/svg" width="21" height="25" viewBox="0 0 21 25">
  <path id="user_icn" d="M18.667,23.864A8.062,8.062,0,0,0,10.5,15.91a8.062,8.062,0,0,0-8.167,7.954A1.151,1.151,0,0,1,1.167,25,1.151,1.151,0,0,1,0,23.864,10.366,10.366,0,0,1,10.5,13.636,10.366,10.366,0,0,1,21,23.864a1.167,1.167,0,0,1-2.333,0Zm-14-18.181A5.766,5.766,0,0,1,10.5,0a5.765,5.765,0,0,1,5.833,5.682A5.765,5.765,0,0,1,10.5,11.364,5.766,5.766,0,0,1,4.666,5.682ZM7,5.682a3.5,3.5,0,0,0,7,0,3.5,3.5,0,0,0-7,0Z" fill="#fff"/>
</svg>
